// Jest Snapshot v1, https://goo.gl/fbAQLP

exports[`Authorization middleware Authorization should provide the \`authz.rulesFor()\` method 1`] = `
[
  x {
    "action": "action",
    "conditions": undefined,
    "fields": undefined,
    "inverted": false,
    "origin": {
      "action": "action",
      "subject": "authorization",
    },
    "priority": 2,
    "reason": undefined,
    "subject": "authorization",
    "t": {
      "conditionsMatcher": [Function],
      "fieldMatcher": undefined,
      "resolveAction": [Function],
    },
  },
]
`;

exports[`Authorization middleware Deprecated functionalities should register the deprecated \`abilities.rulesFor()\` method 1`] = `
[
  x {
    "action": "action",
    "conditions": undefined,
    "fields": undefined,
    "inverted": false,
    "origin": {
      "action": "action",
      "subject": "authorization",
    },
    "priority": 2,
    "reason": undefined,
    "subject": "authorization",
    "t": {
      "conditionsMatcher": [Function],
      "fieldMatcher": undefined,
      "resolveAction": [Function],
    },
  },
]
`;
